{
	"clangd.fallbackFlags": [
		"-DARDUINO=10607",
		"-DARDUINO_ARCH_ESP8266",
		"-DARDUINO_BOARD=\"ESP8266_GENERIC\"",
		"-DARDUINO_ESP8266_GENERIC",
		"-DESP8266",
		"-DFLASHMODE_QIO",
		"-DF_CPU=160000000L",
		"-DICACHE_FLASH",
		"-DLED_BUILTIN=2",
		"-DLWIP_FEATURES=1",
		"-DLWIP_IPV6=0",
		"-DLWIP_OPEN_SRC",
		"-DNONOSDK221=1",
		"-DTCP_MSS=536",
		"-D__ets__",
		"-I/home/kamil/.arduino15/packages/esp8266/hardware/esp8266/2.5.2/libraries/ESP8266WiFi/src/",
		"-I/home/kamil/.arduino15/packages/esp8266/hardware/esp8266/2.5.2/cores/esp8266",
		"-I/home/kamil/.arduino15/packages/esp8266/hardware/esp8266/2.5.2/tools/sdk/include",
		"-I/home/kamil/.arduino15/packages/esp8266/hardware/esp8266/2.5.2/tools/sdk/libc/xtensa-lx106-elf/include",
		"-I/home/kamil/.arduino15/packages/esp8266/hardware/esp8266/2.5.2/tools/sdk/lwip2/include",
		"-I/home/kamil/.arduino15/packages/esp8266/hardware/esp8266/2.5.2/variants/generic",
		"-I/home/kamil/Arduino/fanreg/_build/core",
		"-I/home/kamil/Arduino/libraries/Protothreads/src",
		"-I/home/kamil/Arduino/libraries/lib",
		"-I/home/kamil/Arduino/libraries/OneWire",
		"-I/home/kamil/Arduino/libraries/DallasTemperature",
		"-U__STRICT_ANSI__",
		"-falign-functions=4",
		"-fdata-sections",
		"-ffunction-sections",
		"-fno-exceptions",
		"-fno-rtti",
		"-std=c++11",
		"-xc++"
	],
	"comment": [
		"-nostdlibinc",
		"--no-standard-includes",
		"-isysroot",
		"/home/kamil/.arduino15/packages/esp8266/tools/xtensa-lx106-elf-gcc/2.5.0-3-20ed2b9/xtensa-lx106-elf",
		"-I/home/kamil/.arduino15/packages/esp8266/tools/xtensa-lx106-elf-gcc/2.5.0-3-20ed2b9/xtensa-lx106-elf/include",
		"-I/home/kamil/.arduino15/packages/esp8266/tools/xtensa-lx106-elf-gcc/2.5.0-3-20ed2b9/xtensa-lx106-elf/include/c++/4.8.2",
		"-I/home/kamil/.arduino15/packages/esp8266/tools/xtensa-lx106-elf-gcc/2.5.0-3-20ed2b9/xtensa-lx106-elf/include/c++/4.8.2/xtensa-lx106-elf",
		"-I/home/kamil/.arduino15/packages/esp8266/tools/xtensa-lx106-elf-gcc/2.5.0-3-20ed2b9/lib/gcc/xtensa-lx106-elf/4.8.2/include",
	]
}
